<svg width="238" height="154" viewBox="0 0 238 154" fill="none" xmlns="http://www.w3.org/2000/svg">
<g filter="url(#filter0_b_7_129)">
<mask id="path-1-inside-1_7_129" fill="white">
<path fill-rule="evenodd" clip-rule="evenodd" d="M77 0C34.4741 0 0 34.4741 0 77C0 119.526 34.4741 154 77 154H181H182V153.991C212.753 153.447 238 127.87 238 97C238 65.7959 212.204 40 181 40C169.233 40 158.235 43.6681 149.1 49.9111C138.138 20.7498 109.992 0 77 0Z"/>
</mask>
<path fill-rule="evenodd" clip-rule="evenodd" d="M77 0C34.4741 0 0 34.4741 0 77C0 119.526 34.4741 154 77 154H181H182V153.991C212.753 153.447 238 127.87 238 97C238 65.7959 212.204 40 181 40C169.233 40 158.235 43.6681 149.1 49.9111C138.138 20.7498 109.992 0 77 0Z" fill="url(#paint0_linear_7_129)"/>
<path d="M182 154V155H183V154H182ZM182 153.991L181.982 152.991L181 153.009V153.991H182ZM149.1 49.9111L148.164 50.263L148.612 51.4556L149.664 50.7368L149.1 49.9111ZM1 77C1 35.0264 35.0264 1 77 1V-1C33.9218 -1 -1 33.9218 -1 77H1ZM77 153C35.0264 153 1 118.974 1 77H-1C-1 120.078 33.9218 155 77 155V153ZM181 153H77V155H181V153ZM182 153H181V155H182V153ZM181 153.991V154H183V153.991H181ZM237 97C237 127.323 212.192 152.457 181.982 152.991L182.018 154.991C213.315 154.437 239 128.417 239 97H237ZM181 41C211.652 41 237 66.3482 237 97H239C239 65.2436 212.756 39 181 39V41ZM149.664 50.7368C158.641 44.6019 169.444 41 181 41V39C169.022 39 157.83 42.7343 148.536 49.0855L149.664 50.7368ZM77 1C109.562 1 137.344 21.4788 148.164 50.263L150.036 49.5593C138.933 20.0208 110.422 -1 77 -1V1Z" fill="url(#paint1_linear_7_129)" mask="url(#path-1-inside-1_7_129)"/>
</g>
<defs>
<filter id="filter0_b_7_129" x="-10" y="-10" width="258" height="174" filterUnits="userSpaceOnUse" color-interpolation-filters="sRGB">
<feFlood flood-opacity="0" result="BackgroundImageFix"/>
<feGaussianBlur in="BackgroundImage" stdDeviation="5"/>
<feComposite in2="SourceAlpha" operator="in" result="effect1_backgroundBlur_7_129"/>
<feBlend mode="normal" in="SourceGraphic" in2="effect1_backgroundBlur_7_129" result="shape"/>
</filter>
<linearGradient id="paint0_linear_7_129" x1="119" y1="0" x2="119" y2="154" gradientUnits="userSpaceOnUse">
<stop stop-color="white" stop-opacity="0.49"/>
<stop offset="1" stop-color="white" stop-opacity="0.23"/>
</linearGradient>
<linearGradient id="paint1_linear_7_129" x1="119" y1="0" x2="119" y2="154" gradientUnits="userSpaceOnUse">
<stop stop-color="white"/>
<stop offset="1" stop-color="white" stop-opacity="0"/>
</linearGradient>
</defs>
</svg>
